﻿{
  "$schema": "http://json.schemastore.org/launchsettings.json",
  "iisSettings": {
    "windowsAuthentication": false,
    "anonymousAuthentication": true,
    "iisExpress": {
      "applicationUrl": "http://localhost:3426",
      "sslPort": 44304
    }
  },
  "profiles": {
    "http": {
      "commandName": "Project",
      "dotnetRunMessages": true,
      "launchBrowser": true,
      "launchUrl": "swagger",
      "applicationUrl": "http://localhost:5255",
      "environmentVariables": {
        "ASPNETCORE_ENVIRONMENT": "Development",
        "DB_HOST": "localhost",
        "DB_PORT": "5432",
        "DB_NAME": "messenger-email-db",
        "DB_USER": "postgres",
        "DB_PASSWORD": "admin",
        "RABBIT_MQ_HOST": "localhost",
        "RABBIT_MQ_USERNAME": "guest",
        "RABBIT_MQ_PASSWORD": "guest",
        "SMTP_HOST": "localhost",
        "SMTP_PORT": "2500",
        "SMTP_USE_SSL": "false",
        "SMTP_SENDER_ADDRESS": "messenger@messenger.com",
        "SMTP_SENDER_NAME": "Messenger"
      }
    }
  }
}
